<?xml version="1.0" encoding="UTF-8" standalone="no"?>
<svg xmlns:rdf="http://www.w3.org/1999/02/22-rdf-syntax-ns#" xmlns="http://www.w3.org/2000/svg" height="96.824mm" width="96.824mm" version="1.1" xmlns:cc="http://creativecommons.org/ns#" xmlns:dc="http://purl.org/dc/elements/1.1/" viewBox="0 0 96.824157 96.824157">
 <defs>
  <filter id="filter7787" style="color-interpolation-filters:sRGB">
   <feFlood flood-color="rgb(0,0,0)" result="flood" flood-opacity=".11765"/>
   <feComposite operator="in" result="composite1" in2="SourceGraphic" in="flood"/>
   <feGaussianBlur stdDeviation="3" result="blur" in="composite1"/>
   <feOffset result="offset" dx="6" dy="6"/>
   <feComposite operator="over" result="composite2" in2="offset" in="SourceGraphic"/>
  </filter>
 </defs>
 <g transform="translate(63.118 8.5384)">
  <circle cy="41.307" cx="-11.53" r="48.412" fill-opacity="0"/>
  <circle cy="39.874" cx="-14.706" r="48.412" fill="#da0029"/>
 </g>
 <g transform="matrix(.86973 0 0 .86973 -13.547 -85.253)">
  <g fill="#fff" transform="matrix(.95073 0 0 .95073 3.2889 5.6728)">
   <path d="m54.242 35.11c-0.11776-1.8433 1.8542-4.1481 3.8743-4.1105 2.02 0.03758 4.1321 2.1507 4.205 4.016 0.07285 1.8653-1.7589 3.8381-3.5908 3.9215-1.8319 0.08343-4.3707-1.9838-4.4885-3.827z" transform="translate(22.571,105.85)"/>
   <path d="m43.613 64.046c-0.16248-2.5433 2.5584-5.7234 5.3456-5.6716 2.7872 0.05185 5.7014 2.9675 5.802 5.5412 0.10052 2.5737-2.4268 5.2957-4.9545 5.4108-2.5276 0.11512-6.0306-2.7371-6.1931-5.2804z" transform="translate(22.571,105.85)"/>
   <g transform="matrix(1.0275,0,0,1.0275,-1.8164,-4.5836)">
    <path d="m290.32 148.42c-0.91404-15.499 8.6385-35.972 16.343-49.451 19.537-22.629 49.057-31.018 64.519-31.131 33.344 1.0867 60.893 20.739 67.139 31.371 6.931 12.045 17.929 36.689 17.341 50.574-0.78386 18.527-9.3029 43.256-21.821 56.938-7.573 8.2769-22.7 22.479-46.74 23.613-3.7171 0.17537-5.5905 1.5818-5.869 10.23-0.40519 12.58-17.939 8.5126-17.582 1.3916 0.56491-11.294-3.0555-10.729-5.2105-10.638-21.799 0.91873-33.232-11.142-48.746-26.483-12.785-12.642-18.315-38.464-19.374-56.413zm138.44 51.288c11.921-15.133 16.077-32.292 16.562-50.195-2.2922-20.647-4.365-26.381-16.399-43.347-10.03-14.6-29.276-28.694-57.468-29.168-19.533 0.15352-42.741 12.785-55.333 27.643-10.81 19.138-10.791 14.386-15.094 44.125-0.59643 12.264 8.1112 40.778 17.259 49.554 12.758 12.24 36.544 24.519 54.194 25.535 27.268-0.98798 46.401-14.877 56.278-24.147zm-78.103-89.676c-5.1136-0.17898-10.072 4.7103-10.094 8.8174-0.24728 5.2704 4.2103 9.9513 10.153 9.8506 5.0216-0.0851 9.2519-3.9745 9.4755-9.4458-0.44716-4.1298-3.9518-8.8191-9.5348-9.2222z" transform="matrix(.42264 0 0 .42264 -86.292 90.69)" filter="url(#filter7787)"/>
    <path d="m51.587 157.91c-0.10138-2.0435 1.9738-4.4896 4.014-4.6436 2.1338-0.16108 4.741 2.036 4.8798 4.1714 0.13973 2.1503-2.1757 4.7168-4.3288 4.801-2.0954 0.082-4.461-2.2344-4.5649-4.3288z"/>
    <path d="m83.102 157.92c-0.01172-2.0455 2.1559-4.4043 4.254-4.5301 2.1781-0.13064 4.8209 2.0214 4.9763 4.1396 0.16738 2.2817-2.3048 5.12-4.6553 5.1549-2.2334 0.0332-4.5626-2.5909-4.575-4.7644z"/>
   </g>
  </g>
 </g>
</svg>
