<?xml version="1.0" encoding="UTF-8" standalone="no"?>
<svg xmlns:rdf="http://www.w3.org/1999/02/22-rdf-syntax-ns#" xmlns="http://www.w3.org/2000/svg" height="188.99mm" width="188.99mm" version="1.1" xmlns:cc="http://creativecommons.org/ns#" xmlns:dc="http://purl.org/dc/elements/1.1/" viewBox="0 0 188.9881 188.9881">
 <defs>
  <filter id="filter8549" style="color-interpolation-filters:sRGB">
   <feFlood result="flood" flood-opacity=".11765" flood-color="rgb(0,0,0)"/>
   <feComposite operator="in" result="composite1" in2="SourceGraphic" in="flood"/>
   <feGaussianBlur stdDeviation="3" result="blur" in="composite1"/>
   <feOffset result="offset" dx="6" dy="6"/>
   <feComposite operator="over" result="composite2" in2="offset" in="SourceGraphic"/>
  </filter>
 </defs>
 <g transform="translate(-6.0476 -46.78)">
  <circle cx="100.54" cy="141.27" r="94.494" fill="#6ae1dd"/>
  <path d="m99.678 65.653c-47.34 0.14734-73.84 40.326-73.982 75.54-0.14489 35.945 29.033 77.611 76.007 76.497 34.333-0.81427 74.269-34.331 75.026-70.613 0.76853-36.837-21.767-80.147-74.781-81.401-0.7619-0.018-1.5188-0.0256-2.2703-0.0232zm-18.024 12.458c1.1409 0.0502 2.4358 0.83998 1.4151 2.0309-3.6637 4.2743-5.5857 8.2656-6.8653 12.994-1.0043 3.7112-1.183 7.7417-0.49018 11.523 0.33646 1.8367 2.6657 3.3394 2.2063 5.1492-0.45227 1.7817-1.7879 1.0407-4.1011 0.64851-5.0536-0.8568-8.5399-1.7271-14.042-0.15834-5.9738 1.7032-11.439 5.5246-15.692 10.052-2.8803 3.0667-3.3215 6.9661-5.8693 6.6122-1.8499-0.25698-0.39727-3.9505-0.0151-5.8764 1.7658-8.8998 7.0394-17.159 13.24-23.783 7.7152-8.2417 18.595-17.379 29.742-19.169 0.14953-0.024 0.30918-0.0318 0.47216-0.0247zm41.162 1.9323c1.477-0.0478 3.5343 1.373 5.0013 2.0076 7.444 3.2202 14.637 7.7109 20.111 13.697 6.8085 7.446 12.268 16.684 15.43 26.265 0.70325 2.1305 2.2374 5.9685 0.1735 6.8483-2.0798 0.88654-2.6532-3.6848-4.2476-5.2877-3.9113-3.9322-7.8048-8.3366-12.916-10.489-5.3347-2.2464-11.468-2.2484-17.251-1.9939-1.0021 0.0441-2.2292 1.3072-2.9472 0.6068-1.0509-1.025 0.51134-2.8907 0.78031-4.3339 0.4475-2.4011 1.4732-4.7544 1.3871-7.1953-0.16983-4.8122-1.9383-9.4859-3.7275-13.956-0.78321-1.9568-4.3003-3.8625-3.034-5.5475 0.3201-0.42591 0.74781-0.60508 1.2401-0.62101zm-33.011 6.9189c0.14544 0.00091 0.27901 0.0424 0.36882 0.13795 4.1834 4.4516 5.3782 5.8582 9.1944 9.0105 0.59632 0.49258 0.95813-0.40278 2.2679-0.49066 1.2016-0.0806 1.8316 0.94869 2.3907 0.36788 3.3382-3.4676 5.266-5.2891 8.5203-8.5814 0.30198-0.3055 0.9837-0.36526 1.2871-0.0612 0.28897 0.28965 0.21461 0.92368-0.0612 1.2259-3.9881 4.3709-5.0275 5.4063-8.7042 9.1944-0.57365 0.59103 0.94697 1.2463 0.98082 2.2679 0.0367 1.1051-1.2595 1.7057-0.73574 2.3291 3.2158 3.8276 3.5669 4.1356 7.1716 7.8457 0.42332 0.4357 1.0027 1.2506 0.61296 1.7166-0.31891 0.38137-1.1062 0.0926-1.471-0.24509-3.2007-2.9623-4.6494-5.758-8.1524-8.3363-0.64931-0.4779-1.1636 0.3908-2.3902 0.36787-1.0265-0.0192-1.7692-1.433-2.3907-0.85805-2.8758 2.6606-4.8696 4.9419-7.4783 7.4167-0.31409 0.29797-0.91213 0.72731-1.2259 0.42902-0.26241-0.24945 0.0647-0.7727 0.30671-1.042 3.6605-4.0729 4.4712-4.6858 7.5394-7.9073 0.44784-0.4702-0.7828-1.1285-0.79689-1.7777-0.0367-1.6904 0.69396-2.2154 0.61296-2.5741-0.10727-0.47504-5.1921-5.3351-8.7042-8.8265-0.32174-0.31984-0.1398-1.0309 0.18393-1.3487 0.15598-0.15313 0.43076-0.26214 0.67317-0.26025zm-22.453 26.158c1.8791 0.005 3.733 0.23896 5.5029 0.74665 8.5287 2.4465 17.298 8.9515 20.198 17.337 2.9654 8.5742 0.38321 19.617-5.2877 26.699-4.7386 5.9176-13.224 9.0814-20.805 9.1887-6.8032 0.0963-13.983-3.0097-18.897-7.7148-4.5948-4.399-7.1688-11.028-7.9751-17.337-0.56184-4.3966 0.38524-9.1114 2.3404-13.089 2.4093-4.9017 6.196-9.5542 11.009-12.136 4.1465-2.2242 9.1126-3.7064 13.915-3.6939zm66.973 0.80211c5.7071-0.0104 11.684 2.1239 16.113 5.6655 5.3333 4.2645 9.6464 10.821 10.489 17.597 0.99726 8.0198-1.4375 17.308-6.935 23.232-5.0705 5.4635-13.443 8.2654-20.891 7.9751-6.7418-0.26276-13.353-4.0712-18.291-8.6687-3.5701-3.3238-5.9549-8.0251-7.1948-12.743-0.75651-2.8784-0.67447-6.0297 0-8.9284 1.3647-5.8652 3.6414-12.029 7.9751-16.21 4.626-4.4633 11.178-7.5488 17.597-7.8884 0.37753-0.02 0.75679-0.0306 1.1373-0.0313zm-66.076 16.057c-0.14162-0.00073-0.28249 0.003-0.42191 0.0105-4.1012 0.22345-8.7499 4.4757-8.8417 8.5819-0.10736 4.8024 5.0793 10.571 9.8823 10.489 4.8106-0.0817 9.9857-6.0454 9.5352-10.836-0.40525-4.3093-5.7634-8.2262-10.154-8.2458zm64.756 1.9896c-0.14178 0.00003-0.28293 0.005-0.42334 0.0147-4.3334 0.30139-8.8031 5.5493-8.4952 9.8822 0.32662 4.5958 5.8107 9.4834 10.402 9.1019 4.3176-0.35867 8.5871-5.7376 8.2349-10.056-0.35468-4.3489-5.3234-8.9443-9.7187-8.9431zm-94.337 21.662c1.8778 0.0981 3.3308 3.834 5.0615 5.3123 3.7892 3.2367 6.8974 7.5781 11.442 9.622 4.5282 2.0363 9.8579 3.0883 14.737 2.1669 2.1503-0.4061 4.2862-2.4772 5.8077-1.2136 1.045 0.86784-0.0863 4.0741-0.0863 4.0741-1.5685 2.299-1.7601 5.3662-1.8204 8.1486-0.0821 3.7854 0.42612 7.736 1.9934 11.183 0.7827 1.7212 2.6652 2.7517 3.554 4.4206 0.64011 1.2019 2.0941 2.8622 1.2136 3.901-1.0939 1.2905-3.4527-0.0753-5.0274-0.69354-8.9988-3.5332-17.328-9.4189-23.752-16.644-6.2365-7.0144-10.539-15.837-13.35-24.792-0.53124-1.6928-2.1762-4.4602-0.60679-5.2877 0.28763-0.15165 0.56466-0.21169 0.83291-0.19768zm123.43 1.3923c0.1551-0.005 0.31341 0.0275 0.47548 0.1057 1.4053 0.67812 0.39024 3.1701 0 4.6809-2.3129 8.9536-7.159 17.481-13.436 24.272-7.0067 7.5798-16.635 12.391-25.832 17.077-1.674 0.85285-3.8181 2.6464-4.7676 1.3003-1.1366-1.6113 2.4624-3.1093 3.3805-4.8544 1.9841-3.7711 3.685-7.7814 4.5078-11.962 0.5917-3.0064 0.63293-6.1474 0.25978-9.1887-0.24845-2.0249-2.98-4.3506-1.6469-5.8949 1.5035-1.7417 4.5474 0.84609 6.8483 0.86705 4.3012 0.0392 8.7529-0.0145 12.829-1.3871 3.2922-1.1085 6.3074-3.0946 8.9284-5.3744 2.2166-1.928 3.461-4.7806 5.5479-6.8483 0.89479-0.88652 1.8193-2.7578 2.905-2.7927zm-73.478 14.122c0.23249 0.017 0.46657 0.10483 0.6177 0.24272 4.3709 3.9881 5.4063 5.0271 9.1944 8.7037 0.59102 0.57364 1.2463-0.94698 2.2679-0.98083 1.1051-0.0367 1.7057 1.2595 2.329 0.73574 3.8276-3.2158 4.1361-3.5669 7.8462-7.1716 0.4357-0.42333 1.2501-1.0027 1.7161-0.61296 0.38137 0.31892 0.0926 1.1062-0.24509 1.471-2.9623 3.2007-5.758 4.6494-8.3364 8.1524-0.4779 0.64931 0.39081 1.1641 0.36787 2.3907-0.0192 1.0265-1.433 1.7688-0.85804 2.3902 2.6606 2.8758 4.9419 4.8696 7.4167 7.4783 0.29798 0.31409 0.72731 0.91213 0.42902 1.2259-0.24945 0.26241-0.7727-0.0647-1.042-0.30672-4.0729-3.6605-4.6858-4.4707-7.9073-7.539-0.4702-0.44784-1.1281 0.7823-1.7773 0.79642-1.6904 0.0367-2.2159-0.69396-2.5746-0.61296-0.47504 0.10727-5.3351 5.1921-8.8265 8.7042-0.31984 0.32173-1.0309 0.13979-1.3487-0.18394-0.24501-0.24958-0.37717-0.80247-0.12231-1.042 4.4516-4.1834 5.8582-5.3783 9.0105-9.1944 0.49257-0.59632-0.4023-0.95812-0.49018-2.2679-0.0806-1.2016 0.9482-1.8315 0.3674-2.3907-3.4676-3.3382-5.2891-5.2655-8.5814-8.5198-0.30548-0.30198-0.36526-0.98417-0.0612-1.2876 0.14483-0.14448 0.37573-0.19806 0.60822-0.18109z" filter="url(#filter8549)" fill="#fff"/>
 </g>
</svg>
