<?xml version="1.0" encoding="UTF-8" standalone="no"?>
<svg xmlns="http://www.w3.org/2000/svg" height="100mm" width="100mm" version="1.1" viewBox="0 0 100 100">
 <g transform="translate(0,-197)">
  <rect transform="rotate(-45.035)" ry="6.426" height="75" width="75" stroke="#fff" y="172.7" x="-176.97" stroke-width="1.852" fill="#009fe3"/>
 </g>
 <path style="color:#000000;text-indent:0;text-decoration-line:none;text-transform:none" d="m48.092 29.497c-5.4332 0-9.7338 1.9202-12.323 5.0279-2.5901 3.1077-3.4507 7.0654-3.4507 10.746v18.929h6.3096v-18.929c0-2.6289 0.71673-5.0795 2.0702-6.704 1.3537-1.6245 3.363-2.7604 7.3942-2.7604s6.0401 1.136 7.3942 2.7604c1.3534 1.6245 2.0702 4.0751 2.0702 6.704v6.3096h-14.197l17.351 17.351 17.351-17.352h-14.196v-6.3096c0-3.6807-0.86064-7.6383-3.4507-10.746-2.5898-3.1078-6.89-5.0279-12.323-5.0279z" fill="#fff"/>
</svg>
